Date,Open,High,Low,Close,Adj Close,Volume
2018-11-12,199.000000,199.850006,193.789993,194.169998,194.169998,51135500
2018-11-13,191.630005,197.179993,191.449997,192.229996,192.229996,46882900
2018-11-14,193.899994,194.479996,185.929993,186.800003,186.800003,60801000
2018-11-15,188.389999,191.970001,186.899994,191.410004,191.410004,46478800
2018-11-16,190.500000,194.970001,189.460007,193.529999,193.529999,36928300
2018-11-19,190.000000,190.699997,184.990005,185.860001,185.860001,41925300
2018-11-20,178.369995,181.470001,175.509995,176.979996,176.979996,67825200
2018-11-21,179.729996,180.270004,176.550003,176.779999,176.779999,31124200
2018-11-23,174.940002,176.600006,172.100006,172.289993,172.289993,23624000
2018-11-26,174.240005,174.949997,170.259995,174.619995,174.619995,44998500
2018-11-27,171.509995,174.770004,170.880005,174.240005,174.240005,41387400
2018-11-28,176.729996,181.289993,174.929993,180.940002,180.940002,46062500
2018-11-29,182.660004,182.800003,177.699997,179.550003,179.550003,41770000
2018-11-30,180.289993,180.330002,177.029999,178.580002,178.580002,39531500
2018-12-03,184.460007,184.940002,181.210007,184.820007,184.820007,40802500
2018-12-04,180.949997,182.389999,176.270004,176.690002,176.690002,41344300
2018-12-06,171.759995,174.779999,170.419998,174.720001,174.720001,43098400
2018-12-07,173.490005,174.490005,168.300003,168.490005,168.490005,42281600
2018-12-10,165.000000,170.089996,163.330002,169.600006,169.600006,61946200
2018-12-11,171.660004,171.770004,167.000000,168.630005,168.630005,45787417
